Assignment 6
…
search for 1000 tweets by keyword in English

jb <- rtweet::search_tweets(q = "JoeBiden", n = 1000, lang = "en", token = twitter_token)

preview users data

users_data(jb)

## # A tibble: 943 x 20
##    user_id   screen_name  name        location description      url    protected
##    <chr>     <chr>        <chr>       <chr>    <chr>            <chr>  <lgl>    
##  1 29472026~ heavyed65    "Eddie DiF~ ""       "Activist for a~ <NA>   FALSE    
##  2 29472026~ heavyed65    "Eddie DiF~ ""       "Activist for a~ <NA>   FALSE    
##  3 12270465~ MikeRecon_0~ "<U+270A>Foxy Mik~ "Pomona~ "U.S. Marine, U~ <NA>   FALSE    
##  4 13310139~ Dana32019207 "Dana"      ""       "I promote trut~ <NA>   FALSE    
##  5 465316012 JoniMangare~ "INTERPRET" "Brookl~ ""               https~ FALSE    
##  6 878511020 shay_nurse   "Sharon De~ "Newnan~ "Love walking, ~ <NA>   FALSE    
##  7 12664027~ kiranjohnso~ "Kiran"     ""       ""               <NA>   FALSE    
##  8 23465332~ JWC3D        "James Cox" ""       ""               <NA>   FALSE    
##  9 23465332~ JWC3D        "James Cox" ""       ""               <NA>   FALSE    
## 10 23465332~ JWC3D        "James Cox" ""       ""               <NA>   FALSE    
## # ... with 933 more rows, and 13 more variables: followers_count <int>,
## #   friends_count <int>, listed_count <int>, statuses_count <int>,
## #   favourites_count <int>, account_created_at <dttm>, verified <lgl>,
## #   profile_url <chr>, profile_expanded_url <chr>, account_lang <lgl>,
## #   profile_banner_url <chr>, profile_background_url <chr>,
## #   profile_image_url <chr>
…
Kamala Harriss tweets

search for 100 tweets by keyword in English

kh <- rtweet::search_tweets(q = "KamalaHarris", n = 100, lang = "en", token = twitter_token)

preview users data

users_data(kh)

## # A tibble: 96 x 20
##    user_id  screen_name  name     location      description      url   protected
##    <chr>    <chr>        <chr>    <chr>         <chr>            <chr> <lgl>    
##  1 8725453~ midwifeMary~ "Mary L~ "\U0001f1ee\~ "<U+2618><U+FE0F>\U0001f1ee\U~ <NA>  FALSE    
##  2 1267183~ phortuenti   "bread ~ ""            "We will know o~ <NA>  FALSE    
##  3 4632389~ fbravo56     "Fbravo~ ""            ""               <NA>  FALSE    
##  4 2454936~ rolltak      "awkwar~ ""            "In the words o~ <NA>  FALSE    
##  5 1369946~ Ihaveadream~ "Countr~ ""            "Freedom!!"      <NA>  FALSE    
##  6 1247640~ bestbiafra   "Bestbi~ ""            "BIAFRAN *Freed~ <NA>  FALSE    
##  7 1004141~ LuisaColomb~ "LuisaM~ "USAQUEN"     "#IamJewis #Rev~ <NA>  FALSE    
##  8 1004141~ LuisaColomb~ "LuisaM~ "USAQUEN"     "#IamJewis #Rev~ <NA>  FALSE    
##  9 1004141~ LuisaColomb~ "LuisaM~ "USAQUEN"     "#IamJewis #Rev~ <NA>  FALSE    
## 10 9744193~ cipherEqual~ "Cipher~ "Now"         "Celebrating th~ <NA>  FALSE    
## # ... with 86 more rows, and 13 more variables: followers_count <int>,
## #   friends_count <int>, listed_count <int>, statuses_count <int>,
## #   favourites_count <int>, account_created_at <dttm>, verified <lgl>,
## #   profile_url <chr>, profile_expanded_url <chr>, account_lang <lgl>,
## #   profile_banner_url <chr>, profile_background_url <chr>,
## #   profile_image_url <chr>
…
